# Exported from Wings 3D 0.99.02
newmtl black1
Ns 100.000
d 1.00000
illum 2
Kd 0.00000e+0 0.00000e+0 0.313000
Ka 0.00000e+0 0.00000e+0 0.313000
Ks 0.00000e+0 0.00000e+0 0.313000
Ke 0.00000e+0 0.00000e+0 0.00000e+0

newmtl white1
Ns 100.000
d 1.00000
illum 2
Kd 0.219000 0.594000 0.594000
Ka 0.219000 0.594000 0.594000
Ks 0.219000 0.594000 0.594000
Ke 0.00000e+0 0.00000e+0 0.00000e+0

