# Exported from Wings 3D 1.1.7
newmtl Black
Ns 100.0
d 1.0
illum 2
Kd 0.0 0.0 0.0
Ka 0.0 0.0 0.0
Ks 0.0 0.0 0.0
Ke 0.0 0.0 0.0

newmtl Green
Ns 100.0
d 1.0
illum 2
Kd 0.0 0.797 0.0
Ka 0.0 0.797 0.0
Ks 0.0 0.797 0.0
Ke 0.0 0.0 0.0

newmtl White
Ns 100.0
d 1.0
illum 2
Kd 1.0 1.0 1.0
Ka 1.0 1.0 1.0
Ks 1.0 1.0 1.0
Ke 0.0 0.0 0.0

newmtl Yellow
Ns 100.0
d 1.0
illum 2
Kd 1.0 1.0 0.0
Ka 1.0 1.0 0.0
Ks 1.0 1.0 0.0
Ke 0.0 0.0 0.0

